^C:\USERS\MATTHEW\DOCUMENTS\SOURCETREEPROJECTS\NEURALNETWORKC++\NEURALNETWORK\X64\DEBUG\NEURALNETWORK.OBJ|C:\USERS\MATTHEW\DOCUMENTS\SOURCETREEPROJECTS\NEURALNETWORKC++\NEURALNETWORK\X64\DEBUG\NEURALNETWORKMAIN.OBJ|C:\USERS\MATTHEW\DOCUMENTS\SOURCETREEPROJECTS\NEURALNETWORKC++\NEURALNETWORK\X64\DEBUG\STDAFX.OBJ|C:\USERS\MATTHEW\DOCUMENTS\SOURCETREEPROJECTS\NEURALNETWORKC++\NEURALNETWORK\X64\DEBUG\TRAININGDATA.OBJ
C:\USERS\MATTHEW\DOCUMENTS\SOURCETREEPROJECTS\NEURALNETWORKC++\X64\DEBUG\NEURALNETWORK.ILK
C:\USERS\MATTHEW\DOCUMENTS\SOURCETREEPROJECTS\NEURALNETWORKC++\X64\DEBUG\NEURALNETWORK.EXE
C:\USERS\MATTHEW\DOCUMENTS\SOURCETREEPROJECTS\NEURALNETWORKC++\X64\DEBUG\NEURALNETWORK.PDB
